<?xml version="1.0" encoding="UTF-8" standalone="no"?>
<!-- Created with Inkscape (http://www.inkscape.org/) -->

<svg
   xmlns:dc="http://purl.org/dc/elements/1.1/"
   xmlns:cc="http://creativecommons.org/ns#"
   xmlns:rdf="http://www.w3.org/1999/02/22-rdf-syntax-ns#"
   xmlns:svg="http://www.w3.org/2000/svg"
   xmlns="http://www.w3.org/2000/svg"
   xmlns:sodipodi="http://sodipodi.sourceforge.net/DTD/sodipodi-0.dtd"
   xmlns:inkscape="http://www.inkscape.org/namespaces/inkscape"
   version="1.1"
   id="svg2"
   xml:space="preserve"
   width="493.33334"
   height="37.573334"
   viewBox="0 0 493.33334 37.573334"
   sodipodi:docname="Agriculture-and-Agri-Food-Canada-01.svg"
   inkscape:version="0.92.3 (2405546, 2018-03-11)"><metadata
     id="metadata8"><rdf:RDF><cc:Work
         rdf:about=""><dc:format>image/svg+xml</dc:format><dc:type
           rdf:resource="http://purl.org/dc/dcmitype/StillImage" /><dc:title></dc:title></cc:Work></rdf:RDF></metadata><defs
     id="defs6" /><sodipodi:namedview
     pagecolor="#ffffff"
     bordercolor="#666666"
     borderopacity="1"
     objecttolerance="10"
     gridtolerance="10"
     guidetolerance="10"
     inkscape:pageopacity="0"
     inkscape:pageshadow="2"
     inkscape:window-width="1366"
     inkscape:window-height="713"
     id="namedview4"
     showgrid="false"
     inkscape:zoom="0.89999998"
     inkscape:cx="246.66667"
     inkscape:cy="18.786667"
     inkscape:window-x="0"
     inkscape:window-y="27"
     inkscape:window-maximized="1"
     inkscape:current-layer="g10" /><g
     id="g10"
     inkscape:groupmode="layer"
     inkscape:label="ink_ext_XXXXXX"
     transform="matrix(1.3333333,0,0,-1.3333333,0,37.573333)"><g
       id="g12"
       transform="scale(0.1)"><path
         d="m 228.082,250.289 c 0.285,0.606 1.316,1.445 2.004,0.606 6.902,-4.961 14.891,-9.719 22.019,-12.93 1.965,-0.457 2.633,1.672 3.301,2.949 l 1.067,2.641 18.343,36.875 20.821,-41.192 c 1.965,-2.605 5.168,-1.539 7.57,-0.644 6.465,3.004 11.898,7.984 18.383,10.742 l -13.195,-63.801 c -0.629,-2.418 1.085,-5.195 3.507,-5.441 5.375,0 8.161,6.277 11.84,9.719 l 19.278,22.648 6.71,-16.395 c 1.489,-2.168 4.293,-2.394 6.711,-1.519 l 28.793,6.695 -9.761,-37.558 c 1.316,-6.696 9.535,-6.469 14.281,-9.493 l -56.879,-46.136 c -1.789,-2.016 -2.152,-4.621 -1.297,-6.981 2.117,-5.7771 4.957,-11.4451 6.656,-17.4373 l -56.402,10.1367 c -1.773,-0.6836 -3.906,-1.75 -4.363,-3.6523 l 2.363,-56.3672 c -2.363,-0.418 -5.644,-0.418 -7.781,0 l 1.051,56.082 c -0.422,1.7696 -1.7,3.4805 -3.645,3.9375 l -55.848,-8.8632 6.254,18.9998 -1.484,4.528 -56.688,46.152 c 4.309,3.5 11.914,3.023 14.051,8.902 -3.222,12.684 -7.094,25.406 -10.41,38.149 10.012,-2.817 20.805,-4.715 30.316,-7.094 3.454,-0.875 6.332,2.129 7.188,4.945 1.242,4.375 3.394,8.406 5.148,12.531 9.496,-10.136 18.153,-22.023 28.375,-31.246 2.133,-0.437 4.329,0.762 5.184,2.778 -1.105,14.054 -5.66,27.593 -7.57,41.23 l -5.891,25.504"
         style="fill:#e41837;fill-opacity:1;fill-rule:nonzero;stroke:none"
         id="path14"
         inkscape:connector-curvature="0" /><path
         d="M 124.34,281.785 H 0 V 32.9805 H 124.34 V 281.785"
         style="fill:#e41837;fill-opacity:1;fill-rule:nonzero;stroke:none"
         id="path16"
         inkscape:connector-curvature="0" /><path
         d="M 551.805,281.785 H 427.391 V 32.9805 H 551.805 V 281.785"
         style="fill:#e41837;fill-opacity:1;fill-rule:nonzero;stroke:none"
         id="path18"
         inkscape:connector-curvature="0" /><path
         d="m 813.621,205.227 -10.523,-29.305 h -14.051 l 37.941,100.695 h 15.465 l 36.57,-100.695 h -14.929 l -9.973,29.305 z m 35.563,12.058 -14.891,44.352 h -0.289 l -16.188,-44.352 h 31.368"
         style="fill:#100f0d;fill-opacity:1;fill-rule:nonzero;stroke:none"
         id="path20"
         inkscape:connector-curvature="0" /><path
         d="m 950.984,181.977 c 0,-10.575 -0.156,-36.954 -34.152,-36.954 -8.691,0 -25.719,2.473 -28.141,21.93 h 12.395 c 2.266,-11.637 13.648,-11.637 16.625,-11.637 21.316,0 20.879,17.114 20.879,25.805 v 3.098 c -3.453,-5.895 -9.953,-10.403 -19.813,-10.403 -24.996,0 -32.336,23.43 -32.336,40.965 0,20.594 11.118,36.59 30.7,36.59 13.363,0 19.101,-8.445 22.172,-12.894 v 10.781 h 11.671 v -67.281 m -31.863,2.488 c 7.856,0 20.059,5.195 20.059,24.687 0,11.961 -1.946,31.168 -19.828,31.168 -19.125,0 -20.098,-18.14 -20.098,-27.515 0,-16.129 6.332,-28.34 19.867,-28.34"
         style="fill:#100f0d;fill-opacity:1;fill-rule:nonzero;stroke:none"
         id="path22"
         inkscape:connector-curvature="0" /><path
         d="m 982.242,175.926 h -12.39 v 73.347 h 11.668 v -12.187 h 0.246 c 4.922,8.519 11.48,14.281 20.724,14.281 1.55,0 2.23,-0.113 3.23,-0.418 v -12.761 h -4.66 c -11.494,0 -18.818,-8.938 -18.818,-19.645 v -42.617"
         style="fill:#100f0d;fill-opacity:1;fill-rule:nonzero;stroke:none"
         id="path24"
         inkscape:connector-curvature="0" /><path
         d="m 1015.27,276.613 h 12.36 v -14.015 h -12.36 z m 12.38,-100.695 h -12.36 v 73.348 h 12.36 v -73.348"
         style="fill:#100f0d;fill-opacity:1;fill-rule:nonzero;stroke:none"
         id="path26"
         inkscape:connector-curvature="0" /><path
         d="m 1092.18,224.602 c -1.55,9.832 -7.04,15.711 -17.45,15.711 -15.31,0 -20.23,-14.625 -20.23,-27.653 0,-12.57 3.09,-28.183 20.14,-28.183 8.31,0 15.44,6.16 17.54,17.418 h 11.95 c -1.26,-11.657 -8.37,-28.071 -29.97,-28.071 -20.65,0 -32.89,15.539 -32.89,36.742 0,22.727 10.98,40.793 35.29,40.793 19.28,0 26.58,-14.015 27.57,-26.757 h -11.95"
         style="fill:#100f0d;fill-opacity:1;fill-rule:nonzero;stroke:none"
         id="path28"
         inkscape:connector-curvature="0" /><path
         d="m 1164.48,175.926 v 10.668 l -0.34,0.285 c -5.19,-8.559 -11.5,-13.047 -23.32,-13.047 -10.81,0 -23.91,5.172 -23.91,22.707 v 52.734 h 12.39 v -48.664 c 0,-12.097 6.18,-16.144 14.19,-16.144 15.59,0 20.29,13.785 20.29,24.418 v 40.39 h 12.33 v -73.347 h -11.63"
         style="fill:#100f0d;fill-opacity:1;fill-rule:nonzero;stroke:none"
         id="path30"
         inkscape:connector-curvature="0" /><path
         d="m 1207.3,175.918 h -12.34 v 100.695 h 12.34 V 175.918"
         style="fill:#100f0d;fill-opacity:1;fill-rule:nonzero;stroke:none"
         id="path32"
         inkscape:connector-curvature="0" /><path
         d="m 1241.1,239.051 v -47.715 c 0,-5.762 4.89,-5.762 7.46,-5.762 h 4.31 v -9.64 c -4.48,-0.422 -8.01,-1.008 -9.25,-1.008 -12.24,0 -14.89,6.902 -14.89,15.707 v 48.418 h -10.03 v 10.215 h 10.03 v 20.461 h 12.37 v -20.461 h 11.77 v -10.215 h -11.77"
         style="fill:#100f0d;fill-opacity:1;fill-rule:nonzero;stroke:none"
         id="path34"
         inkscape:connector-curvature="0" /><path
         d="m 1312.98,175.926 v 10.668 l -0.34,0.285 c -5.19,-8.559 -11.52,-13.047 -23.3,-13.047 -10.84,0 -23.93,5.172 -23.93,22.707 v 52.734 h 12.35 v -48.664 c 0,-12.097 6.18,-16.144 14.19,-16.144 15.69,0 20.27,13.785 20.27,24.418 v 40.39 h 12.41 v -73.347 h -11.65"
         style="fill:#100f0d;fill-opacity:1;fill-rule:nonzero;stroke:none"
         id="path36"
         inkscape:connector-curvature="0" /><path
         d="m 1357.24,175.926 h -12.36 v 73.347 h 11.65 v -12.187 h 0.25 c 4.96,8.519 11.4,14.281 20.67,14.281 1.58,0 2.27,-0.113 3.28,-0.418 v -12.761 h -4.67 c -11.5,0 -18.82,-8.938 -18.82,-19.645 v -42.617"
         style="fill:#100f0d;fill-opacity:1;fill-rule:nonzero;stroke:none"
         id="path38"
         inkscape:connector-curvature="0" /><path
         d="m 1452.41,198.926 c -0.39,-3.5 -3.78,-13.903 -13.05,-20.024 -3.41,-2.246 -8.19,-5.078 -19.96,-5.078 -20.69,0 -32.95,15.555 -32.95,36.742 0,22.727 10.97,40.793 35.3,40.793 21.27,0 31.65,-16.793 31.65,-42.793 h -53.68 c 0,-15.23 7.17,-24.093 21.36,-24.093 11.71,0 18.53,8.996 18.95,14.453 h 12.38 m -11.83,19.476 c -0.63,11.411 -5.45,21.907 -20.51,21.907 -11.39,0 -20.35,-10.496 -20.35,-21.907 h 40.86"
         style="fill:#100f0d;fill-opacity:1;fill-rule:nonzero;stroke:none"
         id="path40"
         inkscape:connector-curvature="0" /><path
         d="m 1506.84,227.004 c 0.57,17.551 12.24,24.359 30.35,24.359 5.93,0 27.27,-1.617 27.27,-20.445 v -42.219 c 0,-3.117 1.6,-4.336 4.11,-4.336 1.11,0 2.66,0.25 4.09,0.551 v -8.992 c -2.1,-0.57 -3.91,-1.352 -6.75,-1.352 -10.97,0 -12.65,5.555 -13.08,11.184 -4.77,-5.211 -12.25,-11.926 -26.58,-11.926 -13.54,0 -23.08,8.52 -23.08,21.188 0,6.14 1.85,20.461 22.37,23.011 l 20.36,2.508 c 2.98,0.305 6.45,1.387 6.45,8.711 0,7.664 -5.59,11.922 -17.26,11.922 -14.01,0 -16.01,-8.555 -16.85,-14.164 h -11.4 m 45.28,-13.617 c -2,-1.543 -5.05,-2.684 -20.36,-4.641 -6.11,-0.855 -15.77,-2.683 -15.77,-11.926 0,-7.968 4.1,-12.742 13.34,-12.742 11.56,0 22.79,7.438 22.79,17.25 v 12.059"
         style="fill:#100f0d;fill-opacity:1;fill-rule:nonzero;stroke:none"
         id="path42"
         inkscape:connector-curvature="0" /><path
         d="m 1645.33,175.926 h -12.37 v 45.187 c 0,12.742 -3.62,19.207 -15.71,19.207 -7.04,0 -19.43,-4.511 -19.43,-24.422 v -39.972 h -12.4 v 73.347 h 11.73 V 238.93 h 0.25 c 2.69,3.859 9.55,12.437 22.19,12.437 11.41,0 25.74,-4.582 25.74,-25.539 v -49.902"
         style="fill:#100f0d;fill-opacity:1;fill-rule:nonzero;stroke:none"
         id="path44"
         inkscape:connector-curvature="0" /><path
         d="m 1724.64,175.926 h -11.63 v 10.121 h -0.36 c -5.27,-9.949 -13.73,-12.231 -20.88,-12.231 -25.06,0 -32.38,23.43 -32.38,40.965 0,20.594 11.12,36.59 30.66,36.59 13.39,0 19.01,-8.254 21.95,-12.457 h 0.28 v 37.711 h 12.36 V 175.926 m -32.61,8.539 c 7.84,0 20.14,5.195 20.14,24.687 0,11.961 -2,31.168 -19.85,31.168 -19.11,0 -20.14,-18.14 -20.14,-27.515 0,-16.129 6.32,-28.34 19.85,-28.34"
         style="fill:#100f0d;fill-opacity:1;fill-rule:nonzero;stroke:none"
         id="path46"
         inkscape:connector-curvature="0" /><path
         d="M 813.621,60.1641 803.098,30.8555 h -14.051 l 37.941,100.7185 h 15.465 l 36.57,-100.7185 h -14.929 l -9.973,29.3086 z m 35.563,12.0195 -14.891,44.3864 h -0.289 L 817.816,72.1836 h 31.368"
         style="fill:#100f0d;fill-opacity:1;fill-rule:nonzero;stroke:none"
         id="path48"
         inkscape:connector-curvature="0" /><path
         d="M 950.984,36.875 C 950.984,26.375 950.828,0 916.832,0 908.141,0 891.113,2.33984 888.691,21.8711 h 12.395 c 2.266,-11.6406 13.648,-11.6406 16.625,-11.6406 21.316,0 20.879,17.0976 20.879,25.789 v 3.1368 c -3.453,-5.9297 -9.953,-10.4375 -19.813,-10.4375 -24.996,0 -32.336,23.3906 -32.336,40.9804 0,20.5938 11.118,36.5708 30.7,36.5708 13.363,0 19.101,-8.4067 22.172,-12.8559 V 104.18 h 11.671 V 36.875 m -31.863,2.5469 c 7.856,0 20.059,5.1562 20.059,24.6484 0,11.9063 -1.946,31.168 -19.828,31.168 -19.125,0 -20.098,-18.086 -20.098,-27.5 0,-16.1445 6.332,-28.3164 19.867,-28.3164"
         style="fill:#100f0d;fill-opacity:1;fill-rule:nonzero;stroke:none"
         id="path50"
         inkscape:connector-curvature="0" /><path
         d="m 982.242,30.8633 h -12.39 V 104.191 H 981.52 V 91.9648 h 0.246 c 4.922,8.5782 11.48,14.3012 20.724,14.3012 1.55,0 2.23,-0.133 3.23,-0.399 V 93.1055 h -4.66 c -11.494,0 -18.818,-8.9571 -18.818,-19.6055 V 30.8633"
         style="fill:#100f0d;fill-opacity:1;fill-rule:nonzero;stroke:none"
         id="path52"
         inkscape:connector-curvature="0" /><path
         d="m 1015.27,131.566 h 12.36 v -14.035 h -12.36 z m 12.38,-100.6988 h -12.36 v 73.3318 h 12.36 V 30.8672"
         style="fill:#100f0d;fill-opacity:1;fill-rule:nonzero;stroke:none"
         id="path54"
         inkscape:connector-curvature="0" /><path
         d="m 1077.7,63.3867 h -34.45 v 12.5938 h 34.45 V 63.3867"
         style="fill:#100f0d;fill-opacity:1;fill-rule:nonzero;stroke:none"
         id="path56"
         inkscape:connector-curvature="0" /><path
         d="m 1109.63,30.8633 h -13.71 V 131.578 h 69.94 v -12.113 h -56.23 V 88.6367 h 49.46 V 76.5781 h -49.46 V 30.8633"
         style="fill:#100f0d;fill-opacity:1;fill-rule:nonzero;stroke:none"
         id="path58"
         inkscape:connector-curvature="0" /><path
         d="m 1208.93,106.266 c 23.43,0 34.09,-19.7426 34.09,-38.684 0,-18.9414 -10.66,-38.7187 -34.09,-38.7187 -23.51,0 -34.19,19.7773 -34.19,38.7187 0,18.9414 10.68,38.684 34.19,38.684 m 0,-66.6957 c 17.64,0 21.32,18.1797 21.32,28.0117 0,9.8164 -3.68,28.0547 -21.32,28.0547 -17.79,0 -21.41,-18.2383 -21.41,-28.0547 0,-9.832 3.62,-28.0117 21.41,-28.0117"
         style="fill:#100f0d;fill-opacity:1;fill-rule:nonzero;stroke:none"
         id="path60"
         inkscape:connector-curvature="0" /><path
         d="m 1287.06,106.266 c 23.47,0 34.21,-19.7426 34.21,-38.684 0,-18.9414 -10.74,-38.7187 -34.21,-38.7187 -23.47,0 -34.19,19.7773 -34.19,38.7187 0,18.9414 10.72,38.684 34.19,38.684 m 0,-66.6957 c 17.71,0 21.37,18.1797 21.37,28.0117 0,9.8164 -3.66,28.0547 -21.37,28.0547 -17.72,0 -21.38,-18.2383 -21.38,-28.0547 0,-9.832 3.66,-28.0117 21.38,-28.0117"
         style="fill:#100f0d;fill-opacity:1;fill-rule:nonzero;stroke:none"
         id="path62"
         inkscape:connector-curvature="0" /><path
         d="m 1396.34,30.8633 h -11.7 v 10.0625 h -0.25 c -5.36,-9.9297 -13.82,-12.207 -20.99,-12.207 -25,0 -32.34,23.3906 -32.34,40.9804 0,20.5938 11.1,36.5708 30.68,36.5708 13.34,0 19.01,-8.2348 21.91,-12.438 h 0.32 v 37.75 h 12.37 V 30.8633 m -32.64,8.5586 c 7.88,0 20.1,5.1562 20.1,24.6484 0,11.9063 -1.98,31.168 -19.79,31.168 -19.11,0 -20.14,-18.086 -20.14,-27.5 0,-16.1445 6.33,-28.3164 19.83,-28.3164"
         style="fill:#100f0d;fill-opacity:1;fill-rule:nonzero;stroke:none"
         id="path64"
         inkscape:connector-curvature="0" /><path
         d="m 1524.97,101.211 c -3.77,17.703 -18.59,20.996 -28.26,20.996 -18.26,0 -33.02,-13.504 -33.02,-39.9961 0,-23.8086 8.45,-41.9921 33.44,-41.9921 8.85,0 24.2,4.2617 28.87,27.6523 h 13.16 c -5.65,-37.957 -36.52,-39.6875 -44.16,-39.6875 -22.86,0 -45.42,14.8516 -45.42,53.5508 0,30.9996 17.75,52.4886 47.13,52.4886 26.03,0 39.51,-16.164 41.46,-33.012 h -13.2"
         style="fill:#100f0d;fill-opacity:1;fill-rule:nonzero;stroke:none"
         id="path66"
         inkscape:connector-curvature="0" /><path
         d="m 1553.66,81.8789 c 0.56,17.5742 12.25,24.3831 30.34,24.3831 5.93,0 27.34,-1.657 27.34,-20.4651 V 43.5977 c 0,-3.1016 1.53,-4.336 4.05,-4.336 1.14,0 2.66,0.3047 4.09,0.5703 v -8.9765 c -2.13,-0.5508 -3.96,-1.4258 -6.73,-1.4258 -11.02,0 -12.66,5.5937 -13.1,11.2383 -4.76,-5.2305 -12.22,-11.961 -26.56,-11.961 -13.5,0 -23.07,8.5977 -23.07,21.2422 0,6.1446 1.81,20.5 22.33,22.9531 l 20.38,2.5313 c 2.98,0.3047 6.54,1.4258 6.54,8.707 0,7.668 -5.64,11.9258 -17.35,11.9258 -14.07,0 -16.01,-8.5586 -16.87,-14.1875 h -11.39 m 45.31,-13.5781 c -1.98,-1.5781 -5.09,-2.6797 -20.4,-4.6602 -6.07,-0.8164 -15.75,-2.6601 -15.75,-11.8828 0,-8.0273 4.08,-12.7422 13.36,-12.7422 11.52,0 22.79,7.3399 22.79,17.211 v 12.0742"
         style="fill:#100f0d;fill-opacity:1;fill-rule:nonzero;stroke:none"
         id="path68"
         inkscape:connector-curvature="0" /><path
         d="m 1692.18,30.8633 h -12.37 v 45.1094 c 0,12.7773 -3.68,19.2617 -15.77,19.2617 -7.02,0 -19.39,-4.4688 -19.39,-24.3789 V 30.8633 h -12.4 v 73.3277 h 11.64 V 93.8477 h 0.3 c 2.69,3.8789 9.59,12.4183 22.27,12.4183 11.42,0 25.72,-4.567 25.72,-25.5238 V 30.8633"
         style="fill:#100f0d;fill-opacity:1;fill-rule:nonzero;stroke:none"
         id="path70"
         inkscape:connector-curvature="0" /><path
         d="m 1710.02,81.8789 c 0.59,17.5742 12.26,24.3831 30.35,24.3831 5.9,0 27.29,-1.657 27.29,-20.4651 V 43.5977 c 0,-3.1016 1.54,-4.336 4.06,-4.336 1.16,0 2.71,0.3047 4.14,0.5703 v -8.9765 c -2.12,-0.5508 -3.97,-1.4258 -6.75,-1.4258 -10.98,0 -12.68,5.5937 -13.16,11.2383 -4.75,-5.2305 -12.18,-11.961 -26.5,-11.961 -13.54,0 -23.07,8.5977 -23.07,21.2422 0,6.1446 1.83,20.5 22.33,22.9531 l 20.42,2.5313 c 2.95,0.3047 6.5,1.4258 6.5,8.707 0,7.668 -5.65,11.9258 -17.35,11.9258 -14.09,0 -16,-8.5586 -16.86,-14.1875 h -11.4 m 45.28,-13.5781 c -1.98,-1.5781 -5.07,-2.6797 -20.34,-4.6602 -6.06,-0.8164 -15.77,-2.6601 -15.77,-11.8828 0,-8.0273 4.02,-12.7422 13.37,-12.7422 11.49,0 22.74,7.3399 22.74,17.211 v 12.0742"
         style="fill:#100f0d;fill-opacity:1;fill-rule:nonzero;stroke:none"
         id="path72"
         inkscape:connector-curvature="0" /><path
         d="m 1849.68,30.8633 h -11.67 v 10.0625 h -0.31 c -5.28,-9.9297 -13.78,-12.207 -20.93,-12.207 -25.04,0 -32.38,23.3906 -32.38,40.9804 0,20.5938 11.1,36.5708 30.7,36.5708 13.33,0 18.95,-8.2348 21.93,-12.438 h 0.24 v 37.75 h 12.42 V 30.8633 m -32.67,8.5586 c 7.9,0 20.12,5.1562 20.12,24.6484 0,11.9063 -1.95,31.168 -19.81,31.168 -19.14,0 -20.1,-18.086 -20.1,-27.5 0,-16.1445 6.31,-28.3164 19.79,-28.3164"
         style="fill:#100f0d;fill-opacity:1;fill-rule:nonzero;stroke:none"
         id="path74"
         inkscape:connector-curvature="0" /><path
         d="m 1866.34,81.8789 c 0.63,17.5742 12.3,24.3831 30.43,24.3831 5.89,0 27.29,-1.657 27.29,-20.4651 V 43.5977 c 0,-3.1016 1.52,-4.336 4.04,-4.336 1.12,0 2.71,0.3047 4.08,0.5703 v -8.9765 c -2.04,-0.5508 -3.89,-1.4258 -6.71,-1.4258 -10.97,0 -12.66,5.5937 -13.14,11.2383 -4.75,-5.2305 -12.22,-11.961 -26.52,-11.961 -13.54,0 -23.05,8.5977 -23.05,21.2422 0,6.1446 1.81,20.5 22.32,22.9531 l 20.37,2.5313 c 2.99,0.3047 6.48,1.4258 6.48,8.707 0,7.668 -5.59,11.9258 -17.27,11.9258 -14.08,0 -16.02,-8.5586 -16.84,-14.1875 h -11.48 m 45.32,-13.5781 c -1.92,-1.5781 -5.05,-2.6797 -20.38,-4.6602 -6.04,-0.8164 -15.75,-2.6601 -15.75,-11.8828 0,-8.0273 4.06,-12.7422 13.35,-12.7422 11.59,0 22.78,7.3399 22.78,17.211 v 12.0742"
         style="fill:#100f0d;fill-opacity:1;fill-rule:nonzero;stroke:none"
         id="path76"
         inkscape:connector-curvature="0" /><path
         d="m 2214.13,205.227 -10.53,-29.305 h -14.03 l 37.94,100.695 h 15.43 l 36.57,-100.695 h -14.95 l -9.9,29.305 z m 35.58,12.058 -14.91,44.352 h -0.29 l -16.13,-44.352 h 31.33"
         style="fill:#100f0d;fill-opacity:1;fill-rule:nonzero;stroke:none"
         id="path78"
         inkscape:connector-curvature="0" /><path
         d="m 2351.51,181.977 c 0,-10.575 -0.12,-36.954 -34.19,-36.954 -8.7,0 -25.74,2.473 -28.11,21.93 h 12.38 c 2.25,-11.637 13.63,-11.637 16.61,-11.637 21.39,0 20.95,17.114 20.95,25.805 v 3.098 c -3.51,-5.895 -9.97,-10.403 -19.87,-10.403 -24.97,0 -32.33,23.43 -32.33,40.965 0,20.594 11.11,36.59 30.66,36.59 13.36,0 19.1,-8.445 22.21,-12.894 v 10.781 h 11.69 v -67.281 m -31.92,2.488 c 7.85,0 20.13,5.195 20.13,24.687 0,11.961 -2,31.168 -19.86,31.168 -19.07,0 -20.1,-18.14 -20.1,-27.515 0,-16.129 6.33,-28.34 19.83,-28.34"
         style="fill:#100f0d;fill-opacity:1;fill-rule:nonzero;stroke:none"
         id="path80"
         inkscape:connector-curvature="0" /><path
         d="m 2382.7,175.926 h -12.32 v 73.347 H 2382 v -12.187 h 0.3 c 4.92,8.519 11.42,14.281 20.69,14.281 1.52,0 2.19,-0.113 3.18,-0.418 v -12.761 h -4.57 c -11.6,0 -18.9,-8.938 -18.9,-19.645 v -42.617"
         style="fill:#100f0d;fill-opacity:1;fill-rule:nonzero;stroke:none"
         id="path82"
         inkscape:connector-curvature="0" /><path
         d="m 2428.14,276.613 h -12.4 v -14.015 h 12.4 z m 0,-27.347 h -12.4 v -73.348 h 12.4 v 73.348"
         style="fill:#100f0d;fill-opacity:1;fill-rule:nonzero;stroke:none"
         id="path84"
         inkscape:connector-curvature="0" /><path
         d="m 2492.7,224.602 c -1.58,9.832 -7.04,15.711 -17.47,15.711 -15.33,0 -20.25,-14.625 -20.25,-27.653 0,-12.57 3.07,-28.183 20.1,-28.183 8.33,0 15.47,6.16 17.62,17.418 h 11.97 c -1.29,-11.657 -8.46,-28.071 -29.99,-28.071 -20.69,0 -32.93,15.539 -32.93,36.742 0,22.727 11.02,40.793 35.33,40.793 19.24,0 26.55,-14.015 27.59,-26.757 h -11.97"
         style="fill:#100f0d;fill-opacity:1;fill-rule:nonzero;stroke:none"
         id="path86"
         inkscape:connector-curvature="0" /><path
         d="m 2564.95,175.926 v 10.668 l -0.29,0.285 c -5.17,-8.559 -11.56,-13.047 -23.34,-13.047 -10.85,0 -23.87,5.172 -23.87,22.707 v 52.734 h 12.32 v -48.664 c 0,-12.097 6.21,-16.144 14.2,-16.144 15.64,0 20.29,13.785 20.29,24.418 v 40.39 h 12.39 v -73.347 h -11.7"
         style="fill:#100f0d;fill-opacity:1;fill-rule:nonzero;stroke:none"
         id="path88"
         inkscape:connector-curvature="0" /><path
         d="m 2607.83,175.918 h -12.4 v 100.695 h 12.4 V 175.918"
         style="fill:#100f0d;fill-opacity:1;fill-rule:nonzero;stroke:none"
         id="path90"
         inkscape:connector-curvature="0" /><path
         d="m 2641.61,239.051 v -47.715 c 0,-5.762 4.85,-5.762 7.44,-5.762 h 4.35 v -9.64 c -4.48,-0.422 -8.01,-1.008 -9.31,-1.008 -12.18,0 -14.87,6.902 -14.87,15.707 v 48.418 h -9.95 v 10.215 h 9.95 v 20.461 h 12.39 v -20.461 h 11.79 v -10.215 h -11.79"
         style="fill:#100f0d;fill-opacity:1;fill-rule:nonzero;stroke:none"
         id="path92"
         inkscape:connector-curvature="0" /><path
         d="m 2713.4,175.926 v 10.668 l -0.28,0.285 c -5.15,-8.559 -11.46,-13.047 -23.28,-13.047 -10.83,0 -23.95,5.172 -23.95,22.707 v 52.734 h 12.37 v -48.664 c 0,-12.097 6.22,-16.144 14.21,-16.144 15.63,0 20.28,13.785 20.28,24.418 v 40.39 h 12.34 v -73.347 h -11.69"
         style="fill:#100f0d;fill-opacity:1;fill-rule:nonzero;stroke:none"
         id="path94"
         inkscape:connector-curvature="0" /><path
         d="m 2757.75,175.926 h -12.37 v 73.347 h 11.63 v -12.187 h 0.29 c 4.92,8.519 11.42,14.281 20.67,14.281 1.54,0 2.24,-0.113 3.22,-0.418 v -12.761 h -4.65 c -11.48,0 -18.79,-8.938 -18.79,-19.645 v -42.617"
         style="fill:#100f0d;fill-opacity:1;fill-rule:nonzero;stroke:none"
         id="path96"
         inkscape:connector-curvature="0" /><path
         d="m 2852.94,198.926 c -0.42,-3.5 -3.82,-13.903 -13.08,-20.024 -3.42,-2.246 -8.16,-5.078 -19.97,-5.078 -20.68,0 -32.91,15.555 -32.91,36.742 0,22.727 11.01,40.793 35.28,40.793 21.24,0 31.63,-16.793 31.63,-42.793 h -53.71 c 0,-15.23 7.24,-24.093 21.37,-24.093 11.69,0 18.57,8.996 19.01,14.453 h 12.38 m -11.86,19.476 c -0.67,11.411 -5.47,21.907 -20.52,21.907 -11.4,0 -20.38,-10.496 -20.38,-21.907 h 40.9"
         style="fill:#100f0d;fill-opacity:1;fill-rule:nonzero;stroke:none"
         id="path98"
         inkscape:connector-curvature="0" /><path
         d="m 2970.22,198.926 c -0.46,-3.5 -3.81,-13.903 -13.12,-20.024 -3.37,-2.246 -8.18,-5.078 -19.94,-5.078 -20.67,0 -32.91,15.555 -32.91,36.742 0,22.727 10.94,40.793 35.31,40.793 21.2,0 31.63,-16.793 31.63,-42.793 h -53.73 c 0,-15.23 7.17,-24.093 21.39,-24.093 11.67,0 18.56,8.996 18.98,14.453 h 12.39 m -11.82,19.476 c -0.71,11.411 -5.47,21.907 -20.56,21.907 -11.38,0 -20.38,-10.496 -20.38,-21.907 h 40.94"
         style="fill:#100f0d;fill-opacity:1;fill-rule:nonzero;stroke:none"
         id="path100"
         inkscape:connector-curvature="0" /><path
         d="m 3001.13,239.051 v -47.715 c 0,-5.762 4.94,-5.762 7.43,-5.762 h 4.37 v -9.64 c -4.46,-0.422 -8.03,-1.008 -9.3,-1.008 -12.19,0 -14.9,6.902 -14.9,15.707 v 48.418 h -9.95 v 10.215 h 9.95 v 20.461 h 12.4 v -20.461 h 11.8 v -10.215 h -11.8"
         style="fill:#100f0d;fill-opacity:1;fill-rule:nonzero;stroke:none"
         id="path102"
         inkscape:connector-curvature="0" /><path
         d="M 2214.13,60.1641 2203.6,30.8555 h -14.03 l 37.94,100.7185 h 15.43 l 36.57,-100.7185 h -14.95 l -9.9,29.3086 z m 35.58,12.0195 -14.91,44.3864 h -0.29 l -16.13,-44.3864 h 31.33"
         style="fill:#100f0d;fill-opacity:1;fill-rule:nonzero;stroke:none"
         id="path104"
         inkscape:connector-curvature="0" /><path
         d="m 2351.51,36.875 c 0,-10.5 -0.12,-36.875 -34.19,-36.875 -8.7,0 -25.74,2.33984 -28.11,21.8711 h 12.38 c 2.25,-11.6406 13.63,-11.6406 16.61,-11.6406 21.39,0 20.95,17.0976 20.95,25.789 v 3.1368 c -3.51,-5.9297 -9.97,-10.4375 -19.87,-10.4375 -24.97,0 -32.33,23.3906 -32.33,40.9804 0,20.5938 11.11,36.5708 30.66,36.5708 13.36,0 19.1,-8.4067 22.21,-12.8559 V 104.18 h 11.69 V 36.875 m -31.92,2.5469 c 7.85,0 20.13,5.1562 20.13,24.6484 0,11.9063 -2,31.168 -19.86,31.168 -19.07,0 -20.1,-18.086 -20.1,-27.5 0,-16.1445 6.33,-28.3164 19.83,-28.3164"
         style="fill:#100f0d;fill-opacity:1;fill-rule:nonzero;stroke:none"
         id="path106"
         inkscape:connector-curvature="0" /><path
         d="m 2382.7,30.8633 h -12.32 V 104.191 H 2382 V 91.9648 h 0.3 c 4.92,8.5782 11.42,14.3012 20.69,14.3012 1.52,0 2.19,-0.133 3.18,-0.399 V 93.1055 h -4.57 c -11.6,0 -18.9,-8.9571 -18.9,-19.6055 V 30.8633"
         style="fill:#100f0d;fill-opacity:1;fill-rule:nonzero;stroke:none"
         id="path108"
         inkscape:connector-curvature="0" /><path
         d="m 2445.41,106.266 c 23.49,0 34.19,-19.7426 34.19,-38.684 0,-18.9414 -10.7,-38.7187 -34.19,-38.7187 -23.43,0 -34.15,19.7773 -34.15,38.7187 0,18.9414 10.72,38.684 34.15,38.684 m 0,-66.6957 c 17.7,0 21.4,18.1797 21.4,28.0117 0,9.8164 -3.7,28.0547 -21.4,28.0547 -17.69,0 -21.37,-18.2383 -21.37,-28.0547 0,-9.832 3.68,-28.0117 21.37,-28.0117"
         style="fill:#100f0d;fill-opacity:1;fill-rule:nonzero;stroke:none"
         id="path110"
         inkscape:connector-curvature="0" /><path
         d="m 2493.23,81.8789 c 0.61,17.5742 12.28,24.3831 30.4,24.3831 5.87,0 27.21,-1.657 27.21,-20.4651 V 43.5977 c 0,-3.1016 1.58,-4.336 4.11,-4.336 1.21,0 2.67,0.3047 4.1,0.5703 v -8.9765 c -2.09,-0.5508 -3.96,-1.4258 -6.77,-1.4258 -10.96,0 -12.64,5.5937 -13.06,11.2383 -4.78,-5.2305 -12.24,-11.961 -26.58,-11.961 -13.5,0 -23.07,8.5977 -23.07,21.2422 0,6.1446 1.87,20.5 22.37,22.9531 l 20.36,2.5313 c 2.98,0.3047 6.52,1.4258 6.52,8.707 0,7.668 -5.68,11.9258 -17.29,11.9258 -14.05,0 -16.02,-8.5586 -16.86,-14.1875 h -11.44 m 45.27,-13.5781 c -1.95,-1.5781 -5.07,-2.6797 -20.36,-4.6602 -6.03,-0.8164 -15.73,-2.6601 -15.73,-11.8828 0,-8.0273 4.09,-12.7422 13.3,-12.7422 11.52,0 22.79,7.3399 22.79,17.211 v 12.0742"
         style="fill:#100f0d;fill-opacity:1;fill-rule:nonzero;stroke:none"
         id="path112"
         inkscape:connector-curvature="0" /><path
         d="m 2584.51,30.8672 h -12.4 V 131.586 h 12.4 V 30.8672"
         style="fill:#100f0d;fill-opacity:1;fill-rule:nonzero;stroke:none"
         id="path114"
         inkscape:connector-curvature="0" /><path
         d="m 2603.35,131.566 h 12.37 v -14.035 h -12.37 z m 12.37,-100.6988 h -12.37 v 73.3318 h 12.37 V 30.8672"
         style="fill:#100f0d;fill-opacity:1;fill-rule:nonzero;stroke:none"
         id="path116"
         inkscape:connector-curvature="0" /><path
         d="m 2634.24,104.184 h 11.72 V 93.8398 h 0.25 c 2.71,3.875 9.02,12.4182 22.23,12.4182 13.2,0 17.43,-7.9885 19.49,-11.8674 6.23,6.8284 11.13,11.8674 22.58,11.8674 7.85,0 22.76,-4.016 22.76,-24.6291 V 30.8516 h -12.41 v 47.3711 c 0,10.1367 -3.05,17.0039 -13.62,17.0039 -10.43,0 -17.23,-9.8125 -17.23,-19.6836 V 30.8516 h -12.38 v 50.7773 c 0,6.1797 -2.44,13.5977 -11.59,13.5977 -7,0 -19.41,-4.4532 -19.41,-24.3828 V 30.8516 h -12.39 v 73.3324"
         style="fill:#100f0d;fill-opacity:1;fill-rule:nonzero;stroke:none"
         id="path118"
         inkscape:connector-curvature="0" /><path
         d="m 2813.83,53.8438 c -0.42,-3.5 -3.81,-13.8672 -13.08,-20.0469 -3.36,-2.2227 -8.16,-5.0938 -19.96,-5.0938 -20.71,0 -32.91,15.6133 -32.91,36.7969 0,22.707 10.94,40.754 35.29,40.754 21.24,0 31.65,-16.7735 31.65,-42.7892 h -53.73 c 0,-15.1953 7.23,-24.039 21.39,-24.039 11.67,0 18.59,8.9961 18.96,14.418 h 12.39 m -11.8,19.4921 c -0.71,11.3711 -5.51,21.8907 -20.58,21.8907 -11.32,0 -20.36,-10.5196 -20.36,-21.8907 h 40.94"
         style="fill:#100f0d;fill-opacity:1;fill-rule:nonzero;stroke:none"
         id="path120"
         inkscape:connector-curvature="0" /><path
         d="m 2889.49,30.8633 h -12.39 v 45.1094 c 0,12.7773 -3.63,19.2617 -15.72,19.2617 -7.03,0 -19.44,-4.4688 -19.44,-24.3789 V 30.8633 h -12.36 v 73.3277 h 11.67 V 93.8477 h 0.3 c 2.65,3.8789 9.54,12.4183 22.16,12.4183 11.44,0 25.78,-4.567 25.78,-25.5238 V 30.8633"
         style="fill:#100f0d;fill-opacity:1;fill-rule:nonzero;stroke:none"
         id="path122"
         inkscape:connector-curvature="0" /><path
         d="M 2922.97,93.9688 V 46.2539 c 0,-5.7617 4.92,-5.7617 7.44,-5.7617 h 4.36 v -9.625 c -4.5,-0.4336 -8.02,-0.9492 -9.28,-0.9492 -12.22,0 -14.93,6.8476 -14.93,15.6523 v 48.3985 h -9.97 V 104.18 h 9.97 v 20.465 h 12.41 V 104.18 h 11.8 V 93.9688 h -11.8"
         style="fill:#100f0d;fill-opacity:1;fill-rule:nonzero;stroke:none"
         id="path124"
         inkscape:connector-curvature="0" /><path
         d="m 2946.41,81.8789 c 0.57,17.5742 12.27,24.3831 30.39,24.3831 5.91,0 27.3,-1.657 27.3,-20.4651 V 43.5977 c 0,-3.1016 1.55,-4.336 4.03,-4.336 1.16,0 2.68,0.3047 4.11,0.5703 v -8.9765 c -2.15,-0.5508 -3.92,-1.4258 -6.75,-1.4258 -10.96,0 -12.64,5.5937 -13.06,11.2383 -4.78,-5.2305 -12.28,-11.961 -26.6,-11.961 -13.51,0 -23.07,8.5977 -23.07,21.2422 0,6.1446 1.87,20.5 22.35,22.9531 l 20.42,2.5313 c 2.94,0.3047 6.46,1.4258 6.46,8.707 0,7.668 -5.62,11.9258 -17.25,11.9258 -14.13,0 -16.06,-8.5586 -16.91,-14.1875 h -11.42 m 45.3,-13.5781 c -2.02,-1.5781 -5.05,-2.6797 -20.42,-4.6602 -5.99,-0.8164 -15.71,-2.6601 -15.71,-11.8828 0,-8.0273 4.04,-12.7422 13.34,-12.7422 11.54,0 22.79,7.3399 22.79,17.211 v 12.0742"
         style="fill:#100f0d;fill-opacity:1;fill-rule:nonzero;stroke:none"
         id="path126"
         inkscape:connector-curvature="0" /><path
         d="m 3025.29,131.566 h 12.39 v -14.035 h -12.39 z m 12.39,-100.6988 h -12.39 v 73.3318 h 12.39 V 30.8672"
         style="fill:#100f0d;fill-opacity:1;fill-rule:nonzero;stroke:none"
         id="path128"
         inkscape:connector-curvature="0" /><path
         d="m 3070.32,30.8633 h -12.39 v 73.3277 h 11.65 V 91.9648 h 0.25 c 4.97,8.5782 11.46,14.3012 20.74,14.3012 1.53,0 2.25,-0.133 3.21,-0.399 V 93.1055 h -4.62 c -11.53,0 -18.84,-8.9571 -18.84,-19.6055 V 30.8633"
         style="fill:#100f0d;fill-opacity:1;fill-rule:nonzero;stroke:none"
         id="path130"
         inkscape:connector-curvature="0" /><path
         d="m 3165.49,53.8438 c -0.42,-3.5 -3.8,-13.8672 -13.04,-20.0469 -3.36,-2.2227 -8.18,-5.0938 -19.97,-5.0938 -20.67,0 -32.93,15.6133 -32.93,36.7969 0,22.707 10.97,40.754 35.32,40.754 21.18,0 31.65,-16.7735 31.65,-42.7892 h -53.77 c 0,-15.1953 7.21,-24.039 21.43,-24.039 11.67,0 18.55,8.9961 18.95,14.418 h 12.36 m -11.82,19.4921 c -0.69,11.3711 -5.44,21.8907 -20.54,21.8907 -11.36,0 -20.38,-10.5196 -20.38,-21.8907 h 40.92"
         style="fill:#100f0d;fill-opacity:1;fill-rule:nonzero;stroke:none"
         id="path132"
         inkscape:connector-curvature="0" /><path
         d="m 3292.76,101.211 c -3.81,17.703 -18.61,20.996 -28.22,20.996 -18.32,0 -33.12,-13.504 -33.12,-39.9961 0,-23.8086 8.49,-41.9921 33.5,-41.9921 8.81,0 24.18,4.2617 28.83,27.6523 h 13.24 c -5.65,-37.957 -36.61,-39.6875 -44.16,-39.6875 -22.92,0 -45.46,14.8516 -45.46,53.5508 0,30.9996 17.73,52.4886 47.17,52.4886 25.99,0 39.45,-16.164 41.42,-33.012 h -13.2"
         style="fill:#100f0d;fill-opacity:1;fill-rule:nonzero;stroke:none"
         id="path134"
         inkscape:connector-curvature="0" /><path
         d="m 3321.48,81.8789 c 0.51,17.5742 12.18,24.3831 30.35,24.3831 5.87,0 27.27,-1.657 27.27,-20.4651 V 43.5977 c 0,-3.1016 1.54,-4.336 4.06,-4.336 1.11,0 2.69,0.3047 4.1,0.5703 v -8.9765 c -2.16,-0.5508 -3.95,-1.4258 -6.79,-1.4258 -10.94,0 -12.62,5.5937 -13.02,11.2383 -4.77,-5.2305 -12.3,-11.961 -26.58,-11.961 -13.52,0 -23.11,8.5977 -23.11,21.2422 0,6.1446 1.85,20.5 22.38,22.9531 l 20.39,2.5313 c 2.95,0.3047 6.5,1.4258 6.5,8.707 0,7.668 -5.66,11.9258 -17.28,11.9258 -14.09,0 -16.09,-8.5586 -16.93,-14.1875 h -11.34 m 45.22,-13.5781 c -1.98,-1.5781 -5.03,-2.6797 -20.4,-4.6602 -6,-0.8164 -15.73,-2.6601 -15.73,-11.8828 0,-8.0273 4.12,-12.7422 13.37,-12.7422 11.55,0 22.76,7.3399 22.76,17.211 v 12.0742"
         style="fill:#100f0d;fill-opacity:1;fill-rule:nonzero;stroke:none"
         id="path136"
         inkscape:connector-curvature="0" /><path
         d="m 3459.92,30.8633 h -12.31 v 45.1094 c 0,12.7773 -3.68,19.2617 -15.75,19.2617 -7.04,0 -19.45,-4.4688 -19.45,-24.3789 V 30.8633 h -12.4 v 73.3277 h 11.69 V 93.8477 h 0.31 c 2.67,3.8789 9.53,12.4183 22.21,12.4183 11.38,0 25.7,-4.567 25.7,-25.5238 V 30.8633"
         style="fill:#100f0d;fill-opacity:1;fill-rule:nonzero;stroke:none"
         id="path138"
         inkscape:connector-curvature="0" /><path
         d="m 3477.83,81.8789 c 0.55,17.5742 12.22,24.3831 30.37,24.3831 5.86,0 27.25,-1.657 27.25,-20.4651 V 43.5977 c 0,-3.1016 1.53,-4.336 4.06,-4.336 1.16,0 2.71,0.3047 4.14,0.5703 v -8.9765 c -2.16,-0.5508 -3.99,-1.4258 -6.79,-1.4258 -10.96,0 -12.68,5.5937 -13.06,11.2383 -4.81,-5.2305 -12.24,-11.961 -26.6,-11.961 -13.48,0 -23.01,8.5977 -23.01,21.2422 0,6.1446 1.81,20.5 22.31,22.9531 l 20.38,2.5313 c 2.95,0.3047 6.5,1.4258 6.5,8.707 0,7.668 -5.66,11.9258 -17.31,11.9258 -14.06,0 -16.02,-8.5586 -16.88,-14.1875 h -11.36 m 45.24,-13.5781 c -1.96,-1.5781 -5.05,-2.6797 -20.4,-4.6602 -6.08,-0.8164 -15.71,-2.6601 -15.71,-11.8828 0,-8.0273 4.04,-12.7422 13.35,-12.7422 11.5,0 22.76,7.3399 22.76,17.211 v 12.0742"
         style="fill:#100f0d;fill-opacity:1;fill-rule:nonzero;stroke:none"
         id="path140"
         inkscape:connector-curvature="0" /><path
         d="m 3617.44,30.8633 h -11.65 v 10.0625 h -0.33 c -5.33,-9.9297 -13.76,-12.207 -20.91,-12.207 -25.06,0 -32.34,23.3906 -32.34,40.9804 0,20.5938 11.04,36.5708 30.6,36.5708 13.43,0 19.03,-8.2348 21.95,-12.438 h 0.28 v 37.75 h 12.4 V 30.8633 m -32.64,8.5586 c 7.89,0 20.11,5.1562 20.11,24.6484 0,11.9063 -1.98,31.168 -19.83,31.168 -19.1,0 -20.08,-18.086 -20.08,-27.5 0,-16.1445 6.32,-28.3164 19.8,-28.3164"
         style="fill:#100f0d;fill-opacity:1;fill-rule:nonzero;stroke:none"
         id="path142"
         inkscape:connector-curvature="0" /><path
         d="m 3634.2,81.8789 c 0.51,17.5742 12.24,24.3831 30.32,24.3831 5.93,0 27.32,-1.657 27.32,-20.4651 V 43.5977 c 0,-3.1016 1.52,-4.336 4.04,-4.336 1.15,0 2.71,0.3047 4.12,0.5703 v -8.9765 c -2.14,-0.5508 -3.95,-1.4258 -6.77,-1.4258 -10.96,0 -12.68,5.5937 -13.12,11.2383 -4.78,-5.2305 -12.2,-11.961 -26.5,-11.961 -13.56,0 -23.05,8.5977 -23.05,21.2422 0,6.1446 1.77,20.5 22.31,22.9531 l 20.42,2.5313 c 2.91,0.3047 6.42,1.4258 6.42,8.707 0,7.668 -5.62,11.9258 -17.23,11.9258 -14.09,0 -16.04,-8.5586 -16.92,-14.1875 h -11.36 m 45.23,-13.5781 c -1.97,-1.5781 -5.04,-2.6797 -20.33,-4.6602 -6.08,-0.8164 -15.77,-2.6601 -15.77,-11.8828 0,-8.0273 4.1,-12.7422 13.33,-12.7422 11.52,0 22.77,7.3399 22.77,17.211 v 12.0742"
         style="fill:#100f0d;fill-opacity:1;fill-rule:nonzero;stroke:none"
         id="path144"
         inkscape:connector-curvature="0" /></g></g></svg>